/home/spurdo/Desktop/exercises/philippe.bouchet-webservice-2023/src/test/java/com/epita/assistants/yakamon/arch/ModelTest.java
/home/spurdo/Desktop/exercises/philippe.bouchet-webservice-2023/src/test/java/com/epita/assistants/yakamon/arch/DtoTest.java
/home/spurdo/Desktop/exercises/philippe.bouchet-webservice-2023/src/test/java/com/epita/assistants/yakamon/arch/LayersTest.java
/home/spurdo/Desktop/exercises/philippe.bouchet-webservice-2023/src/test/java/com/epita/assistants/yakamon/arch/EntityTest.java
